Project title
…
person_data_clean <- person_data_clean |>
  mutate(emotion = case_when(
    emotion == "N" ~ "Neutral",
    emotion %in% c("HO", "HC") ~ "Happiness",
    emotion == "A" ~ "Anger",
    emotion == "F" ~ "Fear",
    TRUE ~ emotion))
  
write.csv(person_data_clean, "data/person_data_clean.csv")

person_data_clean

# A tibble: 1,845 × 12
         id city  region   first_choice second_choice would_not_use gender race 
      <dbl> <chr> <chr>    <chr>        <chr>         <chr>         <chr>  <chr>
 1  1856261 FL    Palm Ci… Disgust      Surprise      Happiness     female white
 2 29885393 LA    Lake Ch… Fear         Surprise      Happiness     female white
 3  6432269 OH    Macedon… Sadness      Anger         Happiness     female white
 4  4316379 NY    Bronx    Happiness    Neutral       Anger         female white
 5 45264713 FL    Miami    Happiness    Neutral       Sadness       female lati…
 6  9559045 OK    Jenks    Happiness    Happiness     Anger         female white
 7 44044795 AZ    Lake Ha… Fear         Sadness       Happiness     male   white
 8 27215203 OK    Tulsa    Disgust      Fear          Happiness     female other
 9 44788207 FL    Altamon… Surprise     Fear          Happiness     male   black
10 37243882 IA    Perry    Happiness    Happiness     Anger         male   white
# ℹ 1,835 more rows
# ℹ 4 more variables: target <chr>, emotion <chr>, image_race <chr>,
#   image_gender <chr>
…
write.csv(eas_data, "data/eas_data.csv")

eas_data

# A tibble: 1,207 × 12
   Target Emotion SADNESS NEUTRAL CONTEMPT DISGUST ANGER SURPRISE  FEAR
   <chr>  <chr>     <dbl>   <dbl>    <dbl>   <dbl> <dbl>    <dbl> <dbl>
 1 AF-205 N         0       1        0           0     0        0     0
 2 AF-208 N         0       1        0           0     0        0     0
 3 AF-249 N         0.011   0.983    0.005       0     0        0     0
 4 AF-220 N         0.001   0.993    0.001       0     0        0     0
 5 AF-235 N         0.002   0.994    0.003       0     0        0     0
 6 AF-227 N         0       1        0           0     0        0     0
 7 AF-242 N         0.035   0.964    0           0     0        0     0
 8 AF-234 N         0.02    0.979    0.001       0     0        0     0
 9 AF-247 N         0.002   0.954    0.002       0     0        0     0
10 AF-256 N         0.188   0.811    0.001       0     0        0     0
# ℹ 1,197 more rows
# ℹ 3 more variables: HAPPINESS <dbl>, race <chr>, gender <chr>

eas_data_clean <- eas_data |>
  mutate(Emotion = case_when(
    Emotion == "N" ~ "NEUTRAL",
    Emotion %in% c("HO", "HC") ~ "HAPPINESS",
    Emotion == "A" ~ "ANGER",
    Emotion == "F" ~ "FEAR",
    TRUE ~ Emotion
  ))

write.csv(eas_data_clean, "data/eas_data_clean.csv")

eas_data_clean

# A tibble: 1,207 × 12
   Target Emotion SADNESS NEUTRAL CONTEMPT DISGUST ANGER SURPRISE  FEAR
   <chr>  <chr>     <dbl>   <dbl>    <dbl>   <dbl> <dbl>    <dbl> <dbl>
 1 AF-205 NEUTRAL   0       1        0           0     0        0     0
 2 AF-208 NEUTRAL   0       1        0           0     0        0     0
 3 AF-249 NEUTRAL   0.011   0.983    0.005       0     0        0     0
 4 AF-220 NEUTRAL   0.001   0.993    0.001       0     0        0     0
 5 AF-235 NEUTRAL   0.002   0.994    0.003       0     0        0     0
 6 AF-227 NEUTRAL   0       1        0           0     0        0     0
 7 AF-242 NEUTRAL   0.035   0.964    0           0     0        0     0
 8 AF-234 NEUTRAL   0.02    0.979    0.001       0     0        0     0
 9 AF-247 NEUTRAL   0.002   0.954    0.002       0     0        0     0
10 AF-256 NEUTRAL   0.188   0.811    0.001       0     0        0     0
# ℹ 1,197 more rows
# ℹ 3 more variables: HAPPINESS <dbl>, race <chr>, gender <chr>
…
